%YAML 1.1
%TAG !u! tag:unity3d.com,2011:
--- !u!114 &11400000
MonoBehaviour:
  m_ObjectHideFlags: 0
  m_CorrespondingSourceObject: {fileID: 0}
  m_PrefabInstance: {fileID: 0}
  m_PrefabAsset: {fileID: 0}
  m_GameObject: {fileID: 0}
  m_Enabled: 1
  m_EditorHideFlags: 0
  m_Script: {fileID: 11500000, guid: c87c6243691846741867ed36afdf383a, type: 3}
  m_Name: Score
  m_EditorClassIdentifier: 
  _value: 0
  OnChange: {fileID: 11400000, guid: bb72cea8aa288c745a804505201f838f, type: 2}
