%YAML 1.1
%TAG !u! tag:unity3d.com,2011:
--- !u!114 &11400000
MonoBehaviour:
  m_ObjectHideFlags: 0
  m_CorrespondingSourceObject: {fileID: 0}
  m_PrefabInstance: {fileID: 0}
  m_PrefabAsset: {fileID: 0}
  m_GameObject: {fileID: 0}
  m_Enabled: 1
  m_EditorHideFlags: 0
  m_Script: {fileID: 11500000, guid: b2353e4be6d0f59468a0d5fbafae14d7, type: 3}
  m_Name: greenHDR
  m_EditorClassIdentifier: 
  Value: {r: 0.11356357, g: 0.8301887, b: 0.4461697, a: 1}
