%YAML 1.1
%TAG !u! tag:unity3d.com,2011:
--- !u!114 &11400000
MonoBehaviour:
  m_ObjectHideFlags: 0
  m_CorrespondingSourceObject: {fileID: 0}
  m_PrefabInstance: {fileID: 0}
  m_PrefabAsset: {fileID: 0}
  m_GameObject: {fileID: 0}
  m_Enabled: 1
  m_EditorHideFlags: 0
  m_Script: {fileID: 11500000, guid: 317ca04b6ed6da54c8ac788790e45437, type: 3}
  m_Name: GlobalMusicFader
  m_EditorClassIdentifier: 
  Mixer: {fileID: 24100000, guid: ef9df9d71e915cb40bf86b76d95b310e, type: 2}
  ParameterName: MasterVol
  Duration: 2
  Instance: {fileID: 0}
